"D:\UnrealEngine\SimpleShooter\Intermediate\Build\Win64\UnrealGame\Inc\SimpleShooter\UHT\KillEmAllGameMode.gen.cpp"
/FI"D:\UnrealEngine\SimpleShooter\Intermediate\Build\Win64\x64\SimpleShooter\Shipping\Engine\SharedPCH.Engine.Cpp20.h"
/FI"D:\UnrealEngine\SimpleShooter\Intermediate\Build\Win64\x64\UnrealGame\Shipping\SimpleShooter\Definitions.SimpleShooter.h"
/Yu"D:\UnrealEngine\SimpleShooter\Intermediate\Build\Win64\x64\SimpleShooter\Shipping\Engine\SharedPCH.Engine.Cpp20.h"
/Fp"D:\UnrealEngine\SimpleShooter\Intermediate\Build\Win64\x64\SimpleShooter\Shipping\Engine\SharedPCH.Engine.Cpp20.h.pch"
/Fo"D:\UnrealEngine\SimpleShooter\Intermediate\Build\Win64\x64\UnrealGame\Shipping\SimpleShooter\KillEmAllGameMode.gen.cpp.obj"
/sourceDependencies "D:\UnrealEngine\SimpleShooter\Intermediate\Build\Win64\x64\UnrealGame\Shipping\SimpleShooter\KillEmAllGameMode.gen.cpp.dep.json"
@"D:\UnrealEngine\SimpleShooter\Intermediate\Build\Win64\x64\UnrealGame\Shipping\SimpleShooter\SimpleShooter.Shared.rsp"
/Zc:inline
/nologo
/Oi
/FC
/c
/Gw
/Gy
/utf-8
/wd4819
/DSAL_NO_ATTRIBUTE_DECLARATIONS=1
/permissive-
/Zc:strictStrings-
/Zc:__cplusplus
/D_CRT_STDIO_LEGACY_WIDE_SPECIFIERS=1
/D_SILENCE_STDEXT_HASH_DEPRECATION_WARNINGS=1
/D_DISABLE_EXTENDED_ALIGNED_STORAGE
/Ob2
/experimental:deterministic
/wd5049
/Ox
/Ot
/GF
/errorReport:prompt
/D_HAS_EXCEPTIONS=0
/DPLATFORM_EXCEPTIONS_DISABLED=1
/Z7
/MD
/bigobj
/fp:fast
/Zo
/Zp8
/we4456
/we4458
/we4459
/we4668
/wd4244
/wd4838
/TP
/GR-
/W4
/std:c++20
/Zc:preprocessor
/wd5054